Route: 07 VGO - MTR  120
Date:  15:14 05/01/2021 (converted)
_________________________________________________________________________________
Total distance remaining: 2952.86 sm
_________________________________________________________________________________

ID   NAME           LAT          LON           REMAIN    LENGTH  CRS    M   SPEED
_________________________________________________________________________________
1    VGO BERTH      42°14.800' N 008°42.650' W 2952.86   N/A     N/A    N/A N/A  
2    S of ANCH      42°14.800' N 008°44.400' W 2951.57   1.30    270.0  RL  21.5 
3    VGO PILOT      42°13.943' N 008°47.700' W 2948.98   2.59    250.7  RL  21.5 
4    NORTH TSS      42°14.250' N 008°52.900' W 2945.12   3.86    274.6  RL  21.5 
5    SOUTH TSS      42°16.788' N 008°54.138' W 2942.42   2.70    340.1  RL  21.5 
6    WPT6           42°20.000' N 029°15.000' W 2039.52   902.89  270.2  RL  21.5 
7    ECA LIMIT      44°33.700' N 049°29.000' W 1148.22   891.30  278.6  RL  21.5 
8    ECAREG ZONE    47°32.400' N 059°28.200' W 695.73    452.49  293.3  RL  21.5 
9    Sector A in    49°21.000' N 064°03.000' W 483.57    212.16  300.8  RL  17.0 
10   REP LINE 1G    49°27.500' N 065°50.000' W 413.64    69.93   275.3  RL  17.0 
11   REP LINE 2A    49°12.500' N 067°23.500' W 350.89    62.75   256.2  RL  17.0 
12   REP LINE 4A    48°29.500' N 069°04.000' W 272.01    78.88   237.0  RL  17.0 
13   ST LAWRENCE PIL48°18.250' N 069°23.250' W 254.99    17.03   228.6  RL  17.0 
14   WP18           47°58.000' N 069°42.550' W 230.99    24.00   212.5  RL  17.0 
15   WP19           47°46.000' N 069°52.500' W 217.26    13.73   209.1  RL  17.0 
16   WP20           47°28.950' N 070°12.000' W 195.73    21.53   217.6  RL  17.0 
17   WP21           47°27.100' N 070°16.300' W 192.28    3.45    237.5  RL  17.0 
18   WP22           47°25.935' N 070°24.024' W 186.93    5.35    257.4  RL  17.0 
19   WP23           47°25.050' N 070°26.400' W 185.10    1.84    241.2  RL  17.0 
20   WP24           47°16.000' N 070°32.350' W 175.19    9.91    204.0  RL  17.0 
21   WP25           47°12.235' N 070°36.015' W 170.67    4.51    213.5  RL  17.0 
22   WP26           47°09.490' N 070°39.540' W 167.03    3.64    221.1  RL  17.0 
23   WP27           47°06.625' N 070°42.333' W 163.59    3.44    213.6  RL  17.0 
24   WP28           47°03.836' N 070°44.135' W 160.55    3.05    203.7  RL  17.0 
25   WP29           46°54.294' N 070°53.299' W 149.14    11.41   213.2  RL  17.0 
26   WP30           46°51.558' N 070°58.737' W 144.52    4.62    233.6  RL  17.0 
27   WP31           46°50.558' N 071°03.250' W 141.28    3.24    252.0  RL  17.0 
28   WP32           46°50.250' N 071°05.400' W 139.78    1.50    258.2  RL  17.0 
29   WP33           46°50.550' N 071°09.800' W 136.75    3.02    275.7  RL  17.0 
30   WP34           46°49.210' N 071°11.460' W 135.00    1.76    220.3  RL  17.0 
31   WP35           46°47.460' N 071°12.380' W 133.14    1.86    199.8  RL  17.0 
32   WP36           46°45.150' N 071°15.900' W 129.80    3.34    226.2  RL  17.0 
33   WP37           46°43.400' N 071°22.400' W 125.01    4.79    248.6  RL  17.0 
34   WP38           46°42.050' N 071°31.430' W 118.67    6.34    257.7  RL  17.0 
35   WP39           46°40.750' N 071°33.810' W 116.59    2.09    231.5  RL  17.0 
36   WP40           46°40.000' N 071°36.590' W 114.54    2.05    248.5  RL  17.0 
37   WP41           46°39.200' N 071°38.490' W 113.01    1.53    238.5  RL  17.0 
38   WP42           46°38.330' N 071°42.310' W 110.24    2.76    251.6  RL  17.0 
39   WP43           46°38.350' N 071°43.900' W 109.15    1.09    271.1  RL  17.0 
40   WP44           46°40.780' N 071°50.820' W 103.82    5.33    297.1  RL  17.0 
41   WP45           46°40.780' N 071°51.890' W 103.08    0.73    270.0  RL  17.0 
42   WP46           46°40.460' N 071°52.940' W 102.29    0.79    246.0  RL  17.0 
43   WP47           46°39.470' N 071°53.710' W 101.17    1.12    208.1  RL  17.0 
44   WP48           46°38.120' N 071°55.450' W 99.37     1.80    221.5  RL  17.0 
45   WP49           46°36.460' N 071°58.800' W 96.53     2.84    234.2  RL  17.0 
46   WP50           46°35.410' N 072°00.350' W 95.04     1.50    225.4  RL  17.0 
47   WP51           46°34.000' N 072°03.690' W 92.34     2.69    238.4  RL  17.0 
48   WP52           46°33.870' N 072°04.740' W 91.61     0.73    259.8  RL  17.0 
49   WP53           46°33.920' N 072°06.360' W 90.49     1.11    272.6  RL  17.0 
50   WP54           46°33.790' N 072°07.320' W 89.82     0.67    258.9  RL  17.0 
51   WP55           46°33.615' N 072°07.930' W 89.37     0.45    247.4  RL  17.0 
52   WP56           46°33.220' N 072°08.820' W 88.64     0.73    237.2  RL  17.0 
53   WP57           46°31.995' N 072°10.740' W 86.84     1.80    227.1  RL  17.0 
54   WP58           46°31.420' N 072°12.200' W 85.68     1.16    240.2  RL  17.0 
55   WP59           46°31.090' N 072°12.900' W 85.10     0.58    235.6  RL  17.0 
56   WP60           46°30.480' N 072°13.620' W 84.31     0.79    219.1  RL  17.0 
57   WP61           46°28.190' N 072°14.680' W 81.91     2.40    197.7  RL  17.0 
58   WP62           46°26.830' N 072°15.720' W 80.37     1.54    207.8  RL  17.0 
59   WP63           46°26.450' N 072°16.580' W 79.67     0.70    237.3  RL  17.0 
60   WP64           46°26.170' N 072°20.470' W 76.97     2.70    264.0  RL  17.0 
61   WP65           46°25.920' N 072°21.180' W 76.42     0.55    242.9  RL  17.0 
62   WP66           46°25.035' N 072°22.400' W 75.20     1.22    223.5  RL  17.0 
63   WP67           46°22.940' N 072°26.040' W 71.93     3.27    230.2  RL  17.0 
64   WP58           46°22.590' N 072°28.030' W 70.51     1.42    255.7  RL  17.0 
65   WP69           46°22.095' N 072°29.410' W 69.44     1.07    242.5  RL  17.0 
66   WP70           46°20.550' N 072°31.130' W 67.49     1.95    217.5  RL  17.0 
67   WP71           46°19.530' N 072°32.800' W 65.95     1.54    228.5  RL  17.0 
68   WP72           46°18.770' N 072°33.320' W 65.11     0.84    205.3  RL  17.0 
69   WP73           46°18.210' N 072°34.000' W 64.38     0.73    220.0  RL  17.0 
70   WP74           46°16.040' N 072°38.020' W 60.86     3.53    232.0  RL  17.0 
71   WP75           46°15.700' N 072°39.250' W 59.94     0.92    248.2  RL  17.0 
72   WP76           46°15.880' N 072°41.460' W 58.40     1.54    276.7  RL  17.0 
73   WP77           46°15.650' N 072°42.680' W 57.53     0.87    254.7  RL  17.0 
74   WP78           46°12.680' N 072°49.030' W 52.23     5.30    235.9  RL  17.0 
75   WP79           46°11.550' N 072°53.490' W 48.94     3.29    249.9  RL  17.0 
76   WP80           46°11.030' N 072°54.660' W 47.98     0.96    237.3  RL  17.0 
77   WP81           46°09.760' N 072°56.410' W 46.22     1.76    223.7  RL  17.0 
78   WP82           46°09.170' N 072°56.880' W 45.55     0.67    208.9  RL  17.0 
79   WP83           46°07.140' N 072°57.550' W 43.46     2.08    192.9  RL  17.0 
80   WP84           46°06.020' N 072°58.820' W 42.04     1.42    218.2  RL  17.0 
81   WP85           46°04.060' N 073°02.410' W 38.87     3.17    231.8  RL  17.0 
82   WP86           46°03.790' N 073°03.450' W 38.10     0.77    249.5  RL  17.0 
83   WP87           46°03.600' N 073°05.570' W 36.62     1.48    262.6  RL  17.0 
84   WP88           46°02.900' N 073°08.900' W 34.20     2.41    253.1  RL  17.0 
85   WP89           46°02.410' N 073°09.790' W 33.41     0.79    231.6  RL  17.0 
86   WP90           45°59.070' N 073°11.085' W 29.96     3.46    195.1  RL  17.0 
87   WP91           45°56.950' N 073°12.735' W 27.54     2.41    208.4  RL  17.0 
88   WP92           45°54.670' N 073°12.880' W 25.26     2.28    182.5  RL  17.0 
89   WP93           45°54.180' N 073°13.200' W 24.72     0.54    204.4  RL  17.0 
90   WP94           45°53.415' N 073°14.330' W 23.63     1.10    225.8  RL  17.0 
91   WP95           45°51.605' N 073°16.020' W 21.47     2.16    213.0  RL  17.0 
92   WP96           45°50.830' N 073°16.425' W 20.64     0.82    200.0  RL  17.0 
93   M82/M84        45°47.220' N 073°20.850' W 15.90     4.75    220.5  RL  17.0 
94   M88            45°46.580' N 073°22.170' W 14.77     1.12    235.2  RL  17.0 
95   M118           45°43.130' N 073°25.965' W 10.43     4.35    217.5  RL  17.0 
96   M123           45°42.365' N 073°26.390' W 9.60      0.82    201.2  RL  17.0 
97   M129           45°41.750' N 073°26.950' W 8.88      0.73    212.5  RL  17.0 
98   M133           45°41.300' N 073°27.200' W 8.39      0.48    201.2  RL  17.0 
99   M139           45°40.665' N 073°27.300' W 7.75      0.64    186.3  RL  17.0 
100  M143           45°39.900' N 073°27.742' W 6.93      0.83    202.0  RL  17.0 
101  PAT            45°39.058' N 073°28.517' W 5.93      1.00    212.8  RL  17.0 
102  M163           45°36.517' N 073°30.192' W 3.13      2.80    204.7  RL  17.0 
103  M167           45°35.900' N 073°30.250' W 2.51      0.62    183.8  RL  17.0 
104  M171           45°35.170' N 073°30.065' W 1.77      0.74    169.9  RL  17.0 
105  M175           45°34.640' N 073°30.200' W 1.23      0.54    190.1  RL  17.0 
106  M177           45°34.060' N 073°30.550' W 0.60      0.63    202.9  RL  17.0 
107  MTR Berth      45°33.730' N 073°31.270' W 0.00      0.60    236.8  RL  17.0 

Courses and distances in this file were generated automatically!
Be aware that results could be inaccurate due to e.g. turning circles!
