WPT,Name,LAT,LON,Length,Remain,CRS,M,SPEED,
1,VGO BERTH,42°14.8' N,8°42.65' W,(N/A),2950.839,(N/A),(N/A),(N/A),
2,S of ANCH,42°14.8' N,8°44.4' W,0.0,2950.839,270.0,RL,21.5,
3,VGO PILOT,42°13.943' N,8°47.7' W,2.589,2948.25,250.669,RL,21.5,
4,NORTH TSS,42°14.25' N,8°52.9' W,3.862,2944.388,274.559,RL,21.5,
5,SOUTH TSS,42°16.788' N,8°54.138' W,2.698,2941.689,340.15,RL,21.5,
6,WPT6,42°20.0' N,29°15.0' W,902.899,2038.79,270.204,RL,21.5,
7,ECA LIMIT,44°33.7' N,49°29.0' W,891.3,1147.491,278.627,RL,21.5,
8,ECAREG ZONE,47°32.4' N,59°28.2' W,452.491,695.0,293.261,RL,21.5,
9,Sector A in,49°21.0' N,64°3.0' W,212.161,482.839,300.789,RL,17.0,
10,REP LINE 1G,49°27.5' N,65°50.0' W,69.93,412.91,275.333,RL,17.0,
11,REP LINE 2A,49°12.5' N,67°23.5' W,62.749,350.161,256.17,RL,17.0,
12,REP LINE 4A,48°29.5' N,69°4.0' W,78.881,271.279,236.967,RL,17.0,
13,ST LAWRENCE PILOT,48°18.25' N,69°23.25' W,17.027,254.252,228.646,RL,17.0,
14,WP18,47°58.0' N,69°42.55' W,23.999,230.253,212.459,RL,17.0,
15,WP19,47°46.0' N,69°52.5' W,13.732,216.522,209.085,RL,17.0,
16,WP20,47°28.95' N,70°12.0' W,21.527,194.994,217.626,RL,17.0,
17,WP21,47°27.1' N,70°16.3' W,3.446,191.549,237.527,RL,17.0,
18,WP22,47°25.935' N,70°24.024' W,5.352,186.196,257.428,RL,17.0,
19,WP23,47°25.05' N,70°26.4' W,1.835,184.361,241.165,RL,17.0,
20,WP24,47°16.0' N,70°32.35' W,9.907,174.454,204.013,RL,17.0,
21,WP25,47°12.235' N,70°36.015' W,4.513,169.941,213.463,RL,17.0,
22,WP26,47°9.49' N,70°39.54' W,3.644,166.297,221.115,RL,17.0,
23,WP27,47°6.625' N,70°42.333' W,3.438,162.859,213.552,RL,17.0,
24,WP28,47°3.836' N,70°44.135' W,3.047,159.812,203.745,RL,17.0,
25,WP29,46°54.294' N,70°53.299' W,11.408,148.405,213.232,RL,17.0,
26,WP30,46°51.558' N,70°58.737' W,4.615,143.79,233.643,RL,17.0,
27,WP31,46°50.558' N,71°3.25' W,3.244,140.545,252.047,RL,17.0,
28,WP32,46°50.25' N,71°5.4' W,1.503,139.043,258.172,RL,17.0,
29,WP33,46°50.55' N,71°9.8' W,3.025,136.018,275.692,RL,17.0,
30,WP34,46°49.21' N,71°11.46' W,1.757,134.261,220.283,RL,17.0,
31,WP35,46°47.46' N,71°12.38' W,1.86,132.401,199.79,RL,17.0,
32,WP36,46°45.15' N,71°15.9' W,3.339,129.063,226.224,RL,17.0,
33,WP37,46°43.4' N,71°22.4' W,4.786,124.276,248.553,RL,17.0,
34,WP38,46°42.05' N,71°31.43' W,6.337,117.939,257.7,RL,17.0,
35,WP39,46°40.75' N,71°33.81' W,2.087,115.853,231.471,RL,17.0,
36,WP40,46°40.0' N,71°36.59' W,2.05,113.803,248.536,RL,17.0,
37,WP41,46°39.2' N,71°38.49' W,1.53,112.273,238.47,RL,17.0,
38,WP42,46°38.33' N,71°42.31' W,2.763,109.51,251.647,RL,17.0,
39,WP43,46°38.35' N,71°43.9' W,1.092,108.418,271.052,RL,17.0,
40,WP44,46°40.78' N,71°50.82' W,5.335,103.083,297.096,RL,17.0,
41,WP45,46°40.78' N,71°51.89' W,0.0,103.083,270.0,RL,17.0,
42,WP46,46°40.46' N,71°52.94' W,0.788,102.295,246.047,RL,17.0,
43,WP47,46°39.47' N,71°53.71' W,1.122,101.173,208.092,RL,17.0,
44,WP48,46°38.12' N,71°55.45' W,1.803,99.37,221.503,RL,17.0,
45,WP49,46°36.46' N,71°58.8' W,2.837,96.533,234.191,RL,17.0,
46,WP50,46°35.41' N,72°0.35' W,1.496,95.037,225.406,RL,17.0,
47,WP51,46°34.0' N,72°3.69' W,2.694,92.343,238.443,RL,17.0,
48,WP52,46°33.87' N,72°4.74' W,0.734,91.61,259.79,RL,17.0,
49,WP53,46°33.92' N,72°6.36' W,1.115,90.495,272.569,RL,17.0,
50,WP54,46°33.79' N,72°7.32' W,0.673,89.822,258.861,RL,17.0,
51,WP55,46°33.615' N,72°7.93' W,0.454,89.368,247.35,RL,17.0,
52,WP56,46°33.22' N,72°8.82' W,0.728,88.639,237.161,RL,17.0,
53,WP57,46°31.995' N,72°10.74' W,1.801,86.838,227.15,RL,17.0,
54,WP58,46°31.42' N,72°12.2' W,1.157,85.68,240.212,RL,17.0,
55,WP59,46°31.09' N,72°12.9' W,0.584,85.097,235.585,RL,17.0,
56,WP60,46°30.48' N,72°13.62' W,0.786,84.311,219.086,RL,17.0,
57,WP61,46°28.19' N,72°14.68' W,2.404,81.907,197.677,RL,17.0,
58,WP62,46°26.83' N,72°15.72' W,1.537,80.37,207.78,RL,17.0,
59,WP63,46°26.45' N,72°16.58' W,0.704,79.666,237.327,RL,17.0,
60,WP64,46°26.17' N,72°20.47' W,2.695,76.971,264.038,RL,17.0,
61,WP65,46°25.92' N,72°21.18' W,0.549,76.421,242.935,RL,17.0,
62,WP66,46°25.035' N,72°22.4' W,1.221,75.2,223.538,RL,17.0,
63,WP67,46°22.94' N,72°26.04' W,3.27,71.931,230.152,RL,17.0,
64,WP58,46°22.59' N,72°28.03' W,1.417,70.514,255.698,RL,17.0,
65,WP69,46°22.095' N,72°29.41' W,1.073,69.441,242.531,RL,17.0,
66,WP70,46°20.55' N,72°31.13' W,1.948,67.493,217.537,RL,17.0,
67,WP71,46°19.53' N,72°32.8' W,1.539,65.953,228.505,RL,17.0,
68,WP72,46°18.77' N,72°33.32' W,0.841,65.112,205.29,RL,17.0,
69,WP73,46°18.21' N,72°34.0' W,0.731,64.382,219.993,RL,17.0,
70,WP74,46°16.04' N,72°38.02' W,3.525,60.856,232.006,RL,17.0,
71,WP75,46°15.7' N,72°39.25' W,0.916,59.941,248.209,RL,17.0,
72,WP76,46°15.88' N,72°41.46' W,1.538,58.402,276.719,RL,17.0,
73,WP77,46°15.65' N,72°42.68' W,0.874,57.528,254.744,RL,17.0,
74,WP78,46°12.68' N,72°49.03' W,5.302,52.226,235.934,RL,17.0,
75,WP79,46°11.55' N,72°53.49' W,3.287,48.939,249.894,RL,17.0,
76,WP80,46°11.03' N,72°54.66' W,0.963,47.976,237.299,RL,17.0,
77,WP81,46°9.76' N,72°56.41' W,1.755,46.221,223.659,RL,17.0,
78,WP82,46°9.17' N,72°56.88' W,0.674,45.547,208.887,RL,17.0,
79,WP83,46°7.14' N,72°57.55' W,2.082,43.464,192.883,RL,17.0,
80,WP84,46°6.02' N,72°58.82' W,1.425,42.04,218.171,RL,17.0,
81,WP85,46°4.06' N,73°2.41' W,3.169,38.871,231.793,RL,17.0,
82,WP86,46°3.79' N,73°3.45' W,0.77,38.1,249.485,RL,17.0,
83,WP87,46°3.6' N,73°5.57' W,1.483,36.617,262.64,RL,17.0,
84,WP88,46°2.9' N,73°8.9' W,2.415,34.203,253.148,RL,17.0,
85,WP89,46°2.41' N,73°9.79' W,0.788,33.414,231.582,RL,17.0,
86,WP90,45°59.07' N,73°11.085' W,3.459,29.955,195.071,RL,17.0,
87,WP91,45°56.95' N,73°12.735' W,2.41,27.545,208.413,RL,17.0,
88,WP92,45°54.67' N,73°12.88' W,2.282,25.263,182.533,RL,17.0,
89,WP93,45°54.18' N,73°13.2' W,0.538,24.724,204.436,RL,17.0,
90,WP94,45°53.415' N,73°14.33' W,1.097,23.627,225.791,RL,17.0,
91,WP95,45°51.605' N,73°16.02' W,2.159,21.468,213.027,RL,17.0,
92,WP96,45°50.83' N,73°16.425' W,0.825,20.644,200.001,RL,17.0,
93,M82/M84,45°47.22' N,73°20.85' W,4.748,15.896,220.507,RL,17.0,
94,M88,45°46.58' N,73°22.17' W,1.121,14.774,235.191,RL,17.0,
95,M118,45°43.13' N,73°25.965' W,4.349,10.425,217.51,RL,17.0,
96,M123,45°42.365' N,73°26.39' W,0.821,9.605,201.201,RL,17.0,
97,M129,45°41.75' N,73°26.95' W,0.729,8.876,212.456,RL,17.0,
98,M133,45°41.3' N,73°27.2' W,0.483,8.393,201.206,RL,17.0,
99,M139,45°40.665' N,73°27.3' W,0.639,7.754,186.28,RL,17.0,
100,M143,45°39.9' N,73°27.742' W,0.825,6.929,201.987,RL,17.0,
101,PAT,45°39.058' N,73°28.517' W,1.001,5.928,212.753,RL,17.0,
102,M163,45°36.517' N,73°30.192' W,2.798,3.13,204.748,RL,17.0,
103,M167,45°35.9' N,73°30.25' W,0.618,2.512,183.764,RL,17.0,
104,M171,45°35.17' N,73°30.065' W,0.741,1.77,169.941,RL,17.0,
105,M175,45°34.64' N,73°30.2' W,0.538,1.232,190.107,RL,17.0,
106,M177,45°34.06' N,73°30.55' W,0.63,0.602,202.904,RL,17.0,
107,MTR Berth,45°33.73' N,73°31.27' W,0.602,0.0,236.789,RL,17.0,
