WPT,Name,LAT,LON,Length,Remain,CRS,M,SPEED,
1,Start,42°14.466' N,8°57.647' W,(N/A),175.28,(N/A),(N/A),(N/A),
2,Turn 1,42°17.790' N,9°2.988' W,5.16,170.12,310.1,RL,21.500,
3,Turn 2,42°18.577' N,9°9.496' W,4.88,165.24,279.3,RL,21.500,
4,Turn 3,42°16.712' N,9°17.155' W,5.96,159.28,251.8,RL,21.500,
5,Turn 4,42°12.816' N,9°20.146' W,4.48,154.80,209.6,RL,21.500,
6,Turn 5,42°7.342' N,9°20.212' W,5.47,149.32,180.5,RL,21.500,
7,Turn 6,42°2.855' N,9°14.163' W,6.35,142.98,135.0,RL,21.500,
8,Turn 7,42°3.003' N,9°5.057' W,6.76,136.21,88.7,RL,21.500,
9,Turn 8,42°7.983' N,9°1.202' W,5.74,130.47,29.9,RL,21.500,
10,Turn 9,42°13.161' N,9°0.803' W,5.19,125.28,3.3,RL,21.500,
11,Turn 10,42°16.465' N,9°10.773' W,8.09,117.20,294.1,RL,21.500,
12,START GC,42°23.090' N,9°30.288' W,15.88,101.32,294.7,RL,21.500,
13,END GC,42°28.152' N,11°10.400' W,74.07,27.25,273.9,GC,21.500,
14,SOUTH,42°17.900' N,11°10.400' W,10.25,17.00,180.0,RL,21.500,
15,EAST,42°17.900' N,10°52.300' W,0.00,17.00,90.0,RL,21.500,
16,NORTH,42°34.900' N,10°52.300' W,17.00,0.00,0.0,RL,21.500,
17,WEST,42°34.900' N,11°24.590' W,0.00,0.00,270.0,RL,21.500,
